<?xml version="1.0" encoding="UTF-8" standalone="no"?>
<!-- Created with Inkscape (http://www.inkscape.org/) -->

<svg
   xmlns:dc="http://purl.org/dc/elements/1.1/"
   xmlns:cc="http://creativecommons.org/ns#"
   xmlns:rdf="http://www.w3.org/1999/02/22-rdf-syntax-ns#"
   xmlns:svg="http://www.w3.org/2000/svg"
   xmlns="http://www.w3.org/2000/svg"
   xmlns:sodipodi="http://sodipodi.sourceforge.net/DTD/sodipodi-0.dtd"
   xmlns:inkscape="http://www.inkscape.org/namespaces/inkscape"
   width="210mm"
   height="297mm"
   viewBox="0 0 210 297"
   version="1.1"
   id="svg8"
   inkscape:version="0.92.5 (2060ec1f9f, 2020-04-08)"
   sodipodi:docname="simple_commands_hg.svg"
   inkscape:export-filename="/home/pierre/Output/Teach/scientific-computing-m2-efm/ipynb/fig/schemes_hggit/simple_commands_hg.png"
   inkscape:export-xdpi="126.7"
   inkscape:export-ydpi="126.7">
  <defs
     id="defs2">
    <marker
       inkscape:stockid="Arrow2Sstart"
       orient="auto"
       refY="0.0"
       refX="0.0"
       id="Arrow2Sstart"
       style="overflow:visible"
       inkscape:isstock="true">
      <path
         id="path1061"
         style="fill-rule:evenodd;stroke-width:0.625;stroke-linejoin:round;stroke:#cccccc;stroke-opacity:1;fill:#cbcbcb;fill-opacity:0.75686275"
         d="M 8.7185878,4.0337352 L -2.2072895,0.016013256 L 8.7185884,-4.0017078 C 6.9730900,-1.6296469 6.9831476,1.6157441 8.7185878,4.0337352 z "
         transform="scale(0.3) translate(-2.3,0)" />
    </marker>
    <marker
       inkscape:stockid="Arrow2Send"
       orient="auto"
       refY="0.0"
       refX="0.0"
       id="Arrow2Send"
       style="overflow:visible;"
       inkscape:isstock="true">
      <path
         id="path1064"
         style="fill-rule:evenodd;stroke-width:0.625;stroke-linejoin:round;stroke:#cccccc;stroke-opacity:1;fill:#cbcbcb;fill-opacity:0.75686275"
         d="M 8.7185878,4.0337352 L -2.2072895,0.016013256 L 8.7185884,-4.0017078 C 6.9730900,-1.6296469 6.9831476,1.6157441 8.7185878,4.0337352 z "
         transform="scale(0.3) rotate(180) translate(-2.3,0)" />
    </marker>
    <marker
       inkscape:stockid="Arrow2Mstart"
       orient="auto"
       refY="0.0"
       refX="0.0"
       id="Arrow2Mstart"
       style="overflow:visible"
       inkscape:isstock="true">
      <path
         id="path1055"
         style="fill-rule:evenodd;stroke-width:0.625;stroke-linejoin:round;stroke:#cccccc;stroke-opacity:1;fill:#cbcbcb;fill-opacity:0.75686275"
         d="M 8.7185878,4.0337352 L -2.2072895,0.016013256 L 8.7185884,-4.0017078 C 6.9730900,-1.6296469 6.9831476,1.6157441 8.7185878,4.0337352 z "
         transform="scale(0.6) translate(0,0)" />
    </marker>
    <marker
       inkscape:stockid="Arrow2Mend"
       orient="auto"
       refY="0.0"
       refX="0.0"
       id="marker1297"
       style="overflow:visible;"
       inkscape:isstock="true">
      <path
         id="path1058"
         style="fill-rule:evenodd;stroke-width:0.625;stroke-linejoin:round;stroke:#cccccc;stroke-opacity:1;fill:#cbcbcb;fill-opacity:0.75686275"
         d="M 8.7185878,4.0337352 L -2.2072895,0.016013256 L 8.7185884,-4.0017078 C 6.9730900,-1.6296469 6.9831476,1.6157441 8.7185878,4.0337352 z "
         transform="scale(0.6) rotate(180) translate(0,0)" />
    </marker>
    <marker
       inkscape:stockid="Arrow1Mend"
       orient="auto"
       refY="0.0"
       refX="0.0"
       id="marker1294"
       style="overflow:visible;"
       inkscape:isstock="true">
      <path
         id="path1040"
         d="M 0.0,0.0 L 5.0,-5.0 L -12.5,0.0 L 5.0,5.0 L 0.0,0.0 z "
         style="fill-rule:evenodd;stroke:#000000;stroke-width:1pt;stroke-opacity:1;fill:#000000;fill-opacity:1"
         transform="scale(0.4) rotate(180) translate(10,0)" />
    </marker>
    <marker
       inkscape:stockid="Arrow2Mend"
       orient="auto"
       refY="0.0"
       refX="0.0"
       id="Arrow2Mend"
       style="overflow:visible;"
       inkscape:isstock="true">
      <path
         id="path4710"
         style="fill-rule:evenodd;stroke-width:0.625;stroke-linejoin:round;stroke:#000000;stroke-opacity:1;fill:#000000;fill-opacity:1"
         d="M 8.7185878,4.0337352 L -2.2072895,0.016013256 L 8.7185884,-4.0017078 C 6.9730900,-1.6296469 6.9831476,1.6157441 8.7185878,4.0337352 z "
         transform="scale(0.6) rotate(180) translate(0,0)" />
    </marker>
    <marker
       inkscape:stockid="Arrow1Send"
       orient="auto"
       refY="0.0"
       refX="0.0"
       id="Arrow1Send"
       style="overflow:visible;"
       inkscape:isstock="true">
      <path
         id="path4698"
         d="M 0.0,0.0 L 5.0,-5.0 L -12.5,0.0 L 5.0,5.0 L 0.0,0.0 z "
         style="fill-rule:evenodd;stroke:#000000;stroke-width:1pt;stroke-opacity:1;fill:#000000;fill-opacity:1"
         transform="scale(0.2) rotate(180) translate(6,0)" />
    </marker>
    <marker
       inkscape:stockid="Arrow1Mend"
       orient="auto"
       refY="0.0"
       refX="0.0"
       id="marker5071"
       style="overflow:visible;"
       inkscape:isstock="true">
      <path
         id="path5069"
         d="M 0.0,0.0 L 5.0,-5.0 L -12.5,0.0 L 5.0,5.0 L 0.0,0.0 z "
         style="fill-rule:evenodd;stroke:#000000;stroke-width:1pt;stroke-opacity:1;fill:#000000;fill-opacity:1"
         transform="scale(0.4) rotate(180) translate(10,0)" />
    </marker>
    <marker
       inkscape:stockid="Arrow1Mend"
       orient="auto"
       refY="0.0"
       refX="0.0"
       id="marker5031"
       style="overflow:visible;"
       inkscape:isstock="true">
      <path
         id="path5029"
         d="M 0.0,0.0 L 5.0,-5.0 L -12.5,0.0 L 5.0,5.0 L 0.0,0.0 z "
         style="fill-rule:evenodd;stroke:#000000;stroke-width:1pt;stroke-opacity:1;fill:#000000;fill-opacity:1"
         transform="scale(0.4) rotate(180) translate(10,0)" />
    </marker>
    <marker
       inkscape:stockid="Arrow2Lend"
       orient="auto"
       refY="0.0"
       refX="0.0"
       id="Arrow2Lend"
       style="overflow:visible;"
       inkscape:isstock="true">
      <path
         id="path4704"
         style="fill-rule:evenodd;stroke-width:0.625;stroke-linejoin:round;stroke:#000000;stroke-opacity:1;fill:#000000;fill-opacity:1"
         d="M 8.7185878,4.0337352 L -2.2072895,0.016013256 L 8.7185884,-4.0017078 C 6.9730900,-1.6296469 6.9831476,1.6157441 8.7185878,4.0337352 z "
         transform="scale(1.1) rotate(180) translate(1,0)" />
    </marker>
    <marker
       inkscape:stockid="Arrow1Mend"
       orient="auto"
       refY="0.0"
       refX="0.0"
       id="Arrow1Mend"
       style="overflow:visible;"
       inkscape:isstock="true">
      <path
         id="path4692"
         d="M 0.0,0.0 L 5.0,-5.0 L -12.5,0.0 L 5.0,5.0 L 0.0,0.0 z "
         style="fill-rule:evenodd;stroke:#000000;stroke-width:1pt;stroke-opacity:1;fill:#000000;fill-opacity:1"
         transform="scale(0.4) rotate(180) translate(10,0)" />
    </marker>
    <marker
       inkscape:stockid="Arrow1Lend"
       orient="auto"
       refY="0.0"
       refX="0.0"
       id="Arrow1Lend"
       style="overflow:visible;"
       inkscape:isstock="true">
      <path
         id="path4686"
         d="M 0.0,0.0 L 5.0,-5.0 L -12.5,0.0 L 5.0,5.0 L 0.0,0.0 z "
         style="fill-rule:evenodd;stroke:#000000;stroke-width:1pt;stroke-opacity:1;fill:#000000;fill-opacity:1"
         transform="scale(0.8) rotate(180) translate(12.5,0)" />
    </marker>
    <marker
       inkscape:stockid="Arrow2Mend"
       orient="auto"
       refY="0"
       refX="0"
       id="Arrow2Mend-2"
       style="overflow:visible"
       inkscape:isstock="true">
      <path
         inkscape:connector-curvature="0"
         id="path4710-2"
         style="fill:#000000;fill-opacity:1;fill-rule:evenodd;stroke:#000000;stroke-width:0.625;stroke-linejoin:round;stroke-opacity:1"
         d="M 8.7185878,4.0337352 -2.2072895,0.01601326 8.7185884,-4.0017078 c -1.7454984,2.3720609 -1.7354408,5.6174519 -6e-7,8.035443 z"
         transform="scale(-0.6)" />
    </marker>
    <marker
       inkscape:stockid="Arrow2Mend"
       orient="auto"
       refY="0"
       refX="0"
       id="Arrow2Mend-28"
       style="overflow:visible"
       inkscape:isstock="true">
      <path
         inkscape:connector-curvature="0"
         id="path4710-3"
         style="fill:#000000;fill-opacity:1;fill-rule:evenodd;stroke:#000000;stroke-width:0.625;stroke-linejoin:round;stroke-opacity:1"
         d="M 8.7185878,4.0337352 -2.2072895,0.01601326 8.7185884,-4.0017078 c -1.7454984,2.3720609 -1.7354408,5.6174519 -6e-7,8.035443 z"
         transform="scale(-0.6)" />
    </marker>
    <marker
       inkscape:stockid="Arrow2Mend"
       orient="auto"
       refY="0"
       refX="0"
       id="Arrow2Mend-28-9"
       style="overflow:visible"
       inkscape:isstock="true">
      <path
         inkscape:connector-curvature="0"
         id="path4710-3-1"
         style="fill:#000000;fill-opacity:1;fill-rule:evenodd;stroke:#000000;stroke-width:0.625;stroke-linejoin:round;stroke-opacity:1"
         d="M 8.7185878,4.0337352 -2.2072895,0.01601326 8.7185884,-4.0017078 c -1.7454984,2.3720609 -1.7354408,5.6174519 -6e-7,8.035443 z"
         transform="scale(-0.6)" />
    </marker>
    <marker
       inkscape:stockid="Arrow2Mend"
       orient="auto"
       refY="0"
       refX="0"
       id="Arrow2Mend-0"
       style="overflow:visible"
       inkscape:isstock="true">
      <path
         inkscape:connector-curvature="0"
         id="path4710-5"
         style="fill:#000000;fill-opacity:1;fill-rule:evenodd;stroke:#000000;stroke-width:0.625;stroke-linejoin:round;stroke-opacity:1"
         d="M 8.7185878,4.0337352 -2.2072895,0.01601326 8.7185884,-4.0017078 c -1.7454984,2.3720609 -1.7354408,5.6174519 -6e-7,8.035443 z"
         transform="scale(-0.6)" />
    </marker>
    <marker
       inkscape:stockid="Arrow2Mend"
       orient="auto"
       refY="0"
       refX="0"
       id="Arrow2Mend-28-9-2"
       style="overflow:visible"
       inkscape:isstock="true">
      <path
         inkscape:connector-curvature="0"
         id="path4710-3-1-9"
         style="fill:#000000;fill-opacity:1;fill-rule:evenodd;stroke:#000000;stroke-width:0.625;stroke-linejoin:round;stroke-opacity:1"
         d="M 8.7185878,4.0337352 -2.2072895,0.01601326 8.7185884,-4.0017078 c -1.7454984,2.3720609 -1.7354408,5.6174519 -6e-7,8.035443 z"
         transform="scale(-0.6)" />
    </marker>
    <marker
       inkscape:stockid="Arrow2Mend"
       orient="auto"
       refY="0"
       refX="0"
       id="Arrow2Mend-3"
       style="overflow:visible"
       inkscape:isstock="true">
      <path
         inkscape:connector-curvature="0"
         id="path4710-51"
         style="fill:#000000;fill-opacity:1;fill-rule:evenodd;stroke:#000000;stroke-width:0.625;stroke-linejoin:round;stroke-opacity:1"
         d="M 8.7185878,4.0337352 -2.2072895,0.01601326 8.7185884,-4.0017078 c -1.7454984,2.3720609 -1.7354408,5.6174519 -6e-7,8.035443 z"
         transform="scale(-0.6)" />
    </marker>
  </defs>
  <sodipodi:namedview
     id="base"
     pagecolor="#ffffff"
     bordercolor="#666666"
     borderopacity="1.0"
     inkscape:pageopacity="0.0"
     inkscape:pageshadow="2"
     inkscape:zoom="2.1115193"
     inkscape:cx="363.87064"
     inkscape:cy="879.53022"
     inkscape:document-units="mm"
     inkscape:current-layer="g4615"
     showgrid="false"
     inkscape:window-width="1920"
     inkscape:window-height="1016"
     inkscape:window-x="0"
     inkscape:window-y="27"
     inkscape:window-maximized="1" />
  <metadata
     id="metadata5">
    <rdf:RDF>
      <cc:Work
         rdf:about="">
        <dc:format>image/svg+xml</dc:format>
        <dc:type
           rdf:resource="http://purl.org/dc/dcmitype/StillImage" />
        <dc:title />
      </cc:Work>
    </rdf:RDF>
  </metadata>
  <g
     inkscape:label="Layer 1"
     inkscape:groupmode="layer"
     id="layer1">
    <rect
       style="fill:#ffffff;fill-opacity:1;stroke:none;stroke-width:0.4971979;stroke-miterlimit:4;stroke-dasharray:none;stroke-dashoffset:0;stroke-opacity:1"
       id="rect1347"
       width="77.065201"
       height="67.542046"
       x="15.285774"
       y="22.957176"
       inkscape:export-xdpi="126.89845"
       inkscape:export-ydpi="126.89845" />
    <g
       id="g4615"
       transform="matrix(1.3331657,0,0,1.1535183,-25.01881,-4.7776596)">
      <rect
         ry="0"
         y="63.837666"
         x="61.331413"
         height="8.029254"
         width="15.081747"
         id="rect4518"
         style="fill:#8ffab6;fill-opacity:1;stroke:#000000;stroke-width:0.32600409;stroke-miterlimit:4;stroke-dasharray:none;stroke-opacity:1" />
      <path
         sodipodi:open="true"
         d="m 76.385652,71.590797 a 7.5423369,2.9562376 0 0 1 -3.850277,2.57783 7.5423369,2.9562376 0 0 1 -7.619786,-0.05407 7.5423369,2.9562376 0 0 1 -3.609667,-2.630772"
         sodipodi:end="3.177801"
         sodipodi:start="0"
         sodipodi:ry="2.9562376"
         sodipodi:rx="7.5423369"
         sodipodi:cy="71.590797"
         sodipodi:cx="68.843315"
         sodipodi:type="arc"
         id="path4585"
         style="fill:#8ffab6;fill-opacity:1;stroke:#000000;stroke-width:0.32532212;stroke-miterlimit:4;stroke-dasharray:none;stroke-opacity:1" />
      <ellipse
         ry="2.3270111"
         rx="7.5412722"
         cy="63.747601"
         cx="68.829651"
         id="path4585-3"
         style="fill:#8ffab6;fill-opacity:1;stroke:#000000;stroke-width:0.32514924;stroke-miterlimit:4;stroke-dasharray:none;stroke-opacity:1" />
      <g
         id="g4641">
        <rect
           style="fill:#e6e6e6;fill-opacity:1;stroke:#000000;stroke-width:0.32600409;stroke-miterlimit:4;stroke-dasharray:none;stroke-opacity:1"
           id="rect4518-6"
           width="15.081747"
           height="8.029254"
           x="33.404919"
           y="63.889576"
           ry="0" />
        <path
           style="fill:#e6e6e6;fill-opacity:1;stroke:#000000;stroke-width:0.32532212;stroke-miterlimit:4;stroke-dasharray:none;stroke-opacity:1"
           id="path4585-7"
           sodipodi:type="arc"
           sodipodi:cx="40.91679"
           sodipodi:cy="71.642708"
           sodipodi:rx="7.5423369"
           sodipodi:ry="2.9562376"
           sodipodi:start="0"
           sodipodi:end="3.177801"
           d="m 48.459127,71.642708 a 7.5423369,2.9562376 0 0 1 -3.850277,2.57783 7.5423369,2.9562376 0 0 1 -7.619786,-0.05408 7.5423369,2.9562376 0 0 1 -3.609667,-2.630771"
           sodipodi:open="true" />
        <ellipse
           style="fill:#e6e6e6;fill-opacity:1;stroke:#000000;stroke-width:0.32514924;stroke-miterlimit:4;stroke-dasharray:none;stroke-opacity:1"
           id="path4585-3-5"
           cx="40.903126"
           cy="63.799511"
           rx="7.5412717"
           ry="2.3270111" />
      </g>
      <g
         id="g4673"
         transform="translate(-41.189121,-3.4305806)">
        <rect
           style="fill:#fff7a1;fill-opacity:1;stroke:#000000;stroke-width:0.32600409;stroke-miterlimit:4;stroke-dasharray:none;stroke-opacity:1"
           id="rect4518-3"
           width="15.081747"
           height="8.029254"
           x="110.8707"
           y="37.272491"
           ry="0" />
        <path
           style="fill:#fff7a1;fill-opacity:1;stroke:#000000;stroke-width:0.32532212;stroke-miterlimit:4;stroke-dasharray:none;stroke-opacity:1"
           id="path4585-5"
           sodipodi:type="arc"
           sodipodi:cx="118.38257"
           sodipodi:cy="45.025623"
           sodipodi:rx="7.5423369"
           sodipodi:ry="2.9562376"
           sodipodi:start="0"
           sodipodi:end="3.177801"
           d="m 125.92491,45.025623 a 7.5423369,2.9562376 0 0 1 -3.85028,2.57783 7.5423369,2.9562376 0 0 1 -7.61979,-0.05408 7.5423369,2.9562376 0 0 1 -3.60966,-2.630772"
           sodipodi:open="true" />
        <ellipse
           style="fill:#fff7a1;fill-opacity:1;stroke:#000000;stroke-width:0.32514924;stroke-miterlimit:4;stroke-dasharray:none;stroke-opacity:1"
           id="path4585-3-6"
           cx="118.3689"
           cy="37.182426"
           rx="7.5412717"
           ry="2.3270111" />
      </g>
      <text
         xml:space="preserve"
         style="font-style:normal;font-variant:normal;font-weight:bold;font-stretch:normal;font-size:2.27581477px;line-height:1;font-family:sans-serif;-inkscape-font-specification:'sans-serif, Bold';font-variant-ligatures:normal;font-variant-caps:normal;font-variant-numeric:normal;font-feature-settings:normal;text-align:center;letter-spacing:0px;word-spacing:0px;writing-mode:lr-tb;text-anchor:middle;fill:#000000;fill-opacity:1;stroke:none;stroke-width:0.21335763"
         x="82.761749"
         y="35.53896"
         id="text4666"
         transform="scale(0.93018679,1.0750529)"><tspan
           sodipodi:role="line"
           id="tspan4664"
           x="82.761749"
           y="35.53896"
           style="font-style:normal;font-variant:normal;font-weight:bold;font-stretch:normal;font-size:2.27581477px;line-height:1;font-family:sans-serif;-inkscape-font-specification:'sans-serif, Bold';font-variant-ligatures:normal;font-variant-caps:normal;font-variant-numeric:normal;font-feature-settings:normal;text-align:center;writing-mode:lr-tb;text-anchor:middle;stroke-width:0.21335763">remote</tspan><tspan
           sodipodi:role="line"
           x="82.761749"
           y="37.814774"
           style="font-style:normal;font-variant:normal;font-weight:bold;font-stretch:normal;font-size:2.27581477px;line-height:1;font-family:sans-serif;-inkscape-font-specification:'sans-serif, Bold';font-variant-ligatures:normal;font-variant-caps:normal;font-variant-numeric:normal;font-feature-settings:normal;text-align:center;writing-mode:lr-tb;text-anchor:middle;stroke-width:0.21335763"
           id="tspan4668">repository</tspan></text>
      <path
         style="fill:none;stroke:#000000;stroke-width:0.40319553;stroke-linecap:butt;stroke-linejoin:miter;stroke-miterlimit:4;stroke-dasharray:none;stroke-opacity:1;marker-end:url(#Arrow2Mend)"
         d="M 63.584508,60.296262 C 60.23092,55.297762 48.420304,55.271057 44.257454,60.218854"
         id="path4681"
         inkscape:connector-curvature="0"
         sodipodi:nodetypes="cc" />
      <text
         xml:space="preserve"
         style="font-style:normal;font-variant:normal;font-weight:bold;font-stretch:normal;font-size:2.27581477px;line-height:1.25;font-family:sans-serif;-inkscape-font-specification:'sans-serif, Bold';font-variant-ligatures:normal;font-variant-caps:normal;font-variant-numeric:normal;font-feature-settings:normal;text-align:center;letter-spacing:0px;word-spacing:0px;writing-mode:lr-tb;text-anchor:middle;fill:#000000;fill-opacity:1;stroke:none;stroke-width:0.21335763"
         x="43.845417"
         y="64.441216"
         id="text4666-8"
         transform="scale(0.93018679,1.0750529)"><tspan
           sodipodi:role="line"
           x="43.845417"
           y="64.441216"
           style="font-style:normal;font-variant:normal;font-weight:bold;font-stretch:normal;font-size:2.27581477px;font-family:sans-serif;-inkscape-font-specification:'sans-serif, Bold';font-variant-ligatures:normal;font-variant-caps:normal;font-variant-numeric:normal;font-feature-settings:normal;text-align:center;writing-mode:lr-tb;text-anchor:middle;stroke-width:0.21335763"
           id="tspan4668-4">working</tspan><tspan
           sodipodi:role="line"
           x="43.845417"
           y="67.28598"
           style="font-style:normal;font-variant:normal;font-weight:bold;font-stretch:normal;font-size:2.27581477px;font-family:sans-serif;-inkscape-font-specification:'sans-serif, Bold';font-variant-ligatures:normal;font-variant-caps:normal;font-variant-numeric:normal;font-feature-settings:normal;text-align:center;writing-mode:lr-tb;text-anchor:middle;stroke-width:0.21335763"
           id="tspan5268">directory</tspan></text>
      <text
         xml:space="preserve"
         style="font-style:normal;font-variant:normal;font-weight:bold;font-stretch:normal;font-size:2.27581477px;line-height:1.25;font-family:sans-serif;-inkscape-font-specification:'sans-serif, Bold';font-variant-ligatures:normal;font-variant-caps:normal;font-variant-numeric:normal;font-feature-settings:normal;text-align:center;letter-spacing:0px;word-spacing:0px;writing-mode:lr-tb;text-anchor:middle;fill:#000000;fill-opacity:1;stroke:none;stroke-width:0.21335763"
         x="73.833847"
         y="63.95853"
         id="text4666-2"
         transform="scale(0.93018679,1.0750529)"><tspan
           sodipodi:role="line"
           id="tspan4664-9"
           x="73.833847"
           y="63.95853"
           style="font-style:normal;font-variant:normal;font-weight:bold;font-stretch:normal;font-size:2.27581477px;font-family:sans-serif;-inkscape-font-specification:'sans-serif, Bold';font-variant-ligatures:normal;font-variant-caps:normal;font-variant-numeric:normal;font-feature-settings:normal;text-align:center;writing-mode:lr-tb;text-anchor:middle;stroke-width:0.21335763">local</tspan><tspan
           sodipodi:role="line"
           x="73.833847"
           y="66.803299"
           style="font-style:normal;font-variant:normal;font-weight:bold;font-stretch:normal;font-size:2.27581477px;font-family:sans-serif;-inkscape-font-specification:'sans-serif, Bold';font-variant-ligatures:normal;font-variant-caps:normal;font-variant-numeric:normal;font-feature-settings:normal;text-align:center;writing-mode:lr-tb;text-anchor:middle;stroke-width:0.21335763"
           id="tspan4668-6">repository</tspan></text>
      <text
         xml:space="preserve"
         style="font-style:normal;font-variant:normal;font-weight:bold;font-stretch:normal;font-size:2.27581477px;line-height:1.25;font-family:sans-serif;-inkscape-font-specification:'sans-serif, Bold';font-variant-ligatures:normal;font-variant-caps:normal;font-variant-numeric:normal;font-feature-settings:normal;text-align:center;letter-spacing:0px;word-spacing:0px;writing-mode:lr-tb;text-anchor:middle;fill:#000000;fill-opacity:1;stroke:none;stroke-width:0.21335763"
         x="56.172859"
         y="72.309746"
         id="text4666-2-1"
         transform="scale(0.93018679,1.0750529)"><tspan
           sodipodi:role="line"
           x="56.172859"
           y="72.309746"
           style="font-style:normal;font-variant:normal;font-weight:bold;font-stretch:normal;font-size:2.27581477px;font-family:sans-serif;-inkscape-font-specification:'sans-serif, Bold';font-variant-ligatures:normal;font-variant-caps:normal;font-variant-numeric:normal;font-feature-settings:normal;text-align:center;writing-mode:lr-tb;text-anchor:middle;stroke-width:0.21335763"
           id="tspan4668-6-4">commit</tspan></text>
      <path
         style="fill:none;stroke:#000000;stroke-width:0.40319553;stroke-linecap:butt;stroke-linejoin:miter;stroke-miterlimit:4;stroke-dasharray:none;stroke-opacity:1;marker-end:url(#Arrow2Mend-2)"
         d="m 44.146301,75.803118 c 3.154926,4.697632 14.046002,4.62328 17.917199,-1.008877"
         id="path4681-2"
         inkscape:connector-curvature="0"
         sodipodi:nodetypes="cc" />
      <text
         xml:space="preserve"
         style="font-style:normal;font-variant:normal;font-weight:bold;font-stretch:normal;font-size:2.27581477px;line-height:1.25;font-family:sans-serif;-inkscape-font-specification:'sans-serif, Bold';font-variant-ligatures:normal;font-variant-caps:normal;font-variant-numeric:normal;font-feature-settings:normal;text-align:center;letter-spacing:0px;word-spacing:0px;writing-mode:lr-tb;text-anchor:middle;fill:#000000;fill-opacity:1;stroke:none;stroke-width:0.21335763"
         x="58.235085"
         y="51.584969"
         id="text4666-2-1-0"
         transform="scale(0.93018679,1.0750529)"><tspan
           sodipodi:role="line"
           x="58.235085"
           y="51.584969"
           style="font-style:normal;font-variant:normal;font-weight:bold;font-stretch:normal;font-size:2.27581477px;font-family:sans-serif;-inkscape-font-specification:'sans-serif, Bold';font-variant-ligatures:normal;font-variant-caps:normal;font-variant-numeric:normal;font-feature-settings:normal;text-align:center;writing-mode:lr-tb;text-anchor:middle;stroke-width:0.21335763"
           id="tspan4668-6-4-5">update</tspan></text>
      <flowRoot
         xml:space="preserve"
         id="flowRoot5802"
         style="font-style:normal;font-weight:normal;font-size:16px;line-height:1.25;font-family:sans-serif;letter-spacing:0px;word-spacing:0px;fill:#000000;fill-opacity:1;stroke:none"
         transform="matrix(0.19846245,0,0,0.22937073,18.766467,4.1418152)"><flowRegion
           id="flowRegion5804"><rect
             id="rect5806"
             width="126.44923"
             height="84.299492"
             x="375.08539"
             y="133.65823" /></flowRegion><flowPara
           id="flowPara5808" /></flowRoot>      <path
         style="fill:none;stroke:#000000;stroke-width:0.40319553;stroke-linecap:butt;stroke-linejoin:miter;stroke-miterlimit:4;stroke-dasharray:none;stroke-opacity:1;marker-end:url(#Arrow2Mend-28)"
         d="m 76.799263,64.815321 c 7.998629,-5.03768 6.511369,-17.97392 6.232895,-19.690418"
         id="path4681-8"
         inkscape:connector-curvature="0"
         sodipodi:nodetypes="cc" />
      <text
         xml:space="preserve"
         style="font-style:normal;font-variant:normal;font-weight:bold;font-stretch:normal;font-size:2.27581477px;line-height:1.25;font-family:sans-serif;-inkscape-font-specification:'sans-serif, Bold';font-variant-ligatures:normal;font-variant-caps:normal;font-variant-numeric:normal;font-feature-settings:normal;text-align:center;letter-spacing:0px;word-spacing:0px;writing-mode:lr-tb;text-anchor:middle;fill:#000000;fill-opacity:1;stroke:none;stroke-width:0.21335763"
         x="84.910843"
         y="53.224926"
         id="text4666-2-1-04"
         transform="scale(0.93018679,1.0750529)"><tspan
           sodipodi:role="line"
           x="84.910843"
           y="53.224926"
           style="font-style:normal;font-variant:normal;font-weight:bold;font-stretch:normal;font-size:2.27581477px;font-family:sans-serif;-inkscape-font-specification:'sans-serif, Bold';font-variant-ligatures:normal;font-variant-caps:normal;font-variant-numeric:normal;font-feature-settings:normal;text-align:center;writing-mode:lr-tb;text-anchor:middle;stroke-width:0.21335763"
           id="tspan4668-6-4-0">push</tspan></text>
      <path
         style="fill:none;stroke:#000000;stroke-width:0.40319553;stroke-linecap:butt;stroke-linejoin:miter;stroke-miterlimit:4;stroke-dasharray:none;stroke-opacity:1;marker-end:url(#Arrow2Mend-28-9)"
         d="m 71.982293,45.021371 c -2.044992,4.573568 -3.691369,9.500763 -3.937667,15.052644"
         id="path4681-8-9"
         inkscape:connector-curvature="0"
         sodipodi:nodetypes="cc" />
      <text
         xml:space="preserve"
         style="font-style:normal;font-variant:normal;font-weight:bold;font-stretch:normal;font-size:2.27581477px;line-height:1.25;font-family:sans-serif;-inkscape-font-specification:'sans-serif, Bold';font-variant-ligatures:normal;font-variant-caps:normal;font-variant-numeric:normal;font-feature-settings:normal;text-align:center;letter-spacing:0px;word-spacing:0px;writing-mode:lr-tb;text-anchor:middle;fill:#8ffab6;fill-opacity:1;stroke:none;stroke-width:0.21335763"
         x="77.258476"
         y="56.551804"
         id="text4666-2-1-04-6"
         transform="scale(0.93018679,1.0750529)"><tspan
           sodipodi:role="line"
           x="77.258476"
           y="56.551804"
           style="font-style:normal;font-variant:normal;font-weight:bold;font-stretch:normal;font-size:2.27581477px;font-family:sans-serif;-inkscape-font-specification:'sans-serif, Bold';font-variant-ligatures:normal;font-variant-caps:normal;font-variant-numeric:normal;font-feature-settings:normal;text-align:center;writing-mode:lr-tb;text-anchor:middle;fill:#8ffab6;fill-opacity:1;stroke-width:0.21335763"
           id="tspan4668-6-4-0-2">clone</tspan></text>
      <text
         xml:space="preserve"
         style="font-style:normal;font-variant:normal;font-weight:bold;font-stretch:normal;font-size:1.70686102px;line-height:1.25;font-family:sans-serif;-inkscape-font-specification:'sans-serif, Bold';font-variant-ligatures:normal;font-variant-caps:normal;font-variant-numeric:normal;font-feature-settings:normal;text-align:center;letter-spacing:0px;word-spacing:0px;writing-mode:lr-tb;text-anchor:middle;fill:#f68183;fill-opacity:1;stroke:none;stroke-width:0.21335763"
         x="57.876514"
         y="54.788269"
         id="text4666-2-1-0-5"
         transform="scale(0.93018679,1.0750529)"><tspan
           sodipodi:role="line"
           x="57.876514"
           y="54.788269"
           style="font-style:normal;font-variant:normal;font-weight:bold;font-stretch:normal;font-size:1.70686102px;font-family:sans-serif;-inkscape-font-specification:'sans-serif, Bold';font-variant-ligatures:normal;font-variant-caps:normal;font-variant-numeric:normal;font-feature-settings:normal;text-align:center;writing-mode:lr-tb;text-anchor:middle;fill:#f68183;fill-opacity:1;stroke-width:0.21335763"
           id="tspan4668-6-4-5-4">(--clean)</tspan></text>
      <text
         xml:space="preserve"
         style="font-style:normal;font-variant:normal;font-weight:bold;font-stretch:normal;font-size:1.70686102px;line-height:1.25;font-family:sans-serif;-inkscape-font-specification:'sans-serif, Bold';font-variant-ligatures:normal;font-variant-caps:normal;font-variant-numeric:normal;font-feature-settings:normal;text-align:center;letter-spacing:0px;word-spacing:0px;writing-mode:lr-tb;text-anchor:middle;fill:#f68183;fill-opacity:1;stroke:none;stroke-width:0.21335763"
         x="56.338017"
         y="75.692505"
         id="text4666-2-1-0-5-3"
         transform="scale(0.93018679,1.0750529)"><tspan
           sodipodi:role="line"
           x="56.338017"
           y="75.692505"
           style="font-style:normal;font-variant:normal;font-weight:bold;font-stretch:normal;font-size:1.70686102px;font-family:sans-serif;-inkscape-font-specification:'sans-serif, Bold';font-variant-ligatures:normal;font-variant-caps:normal;font-variant-numeric:normal;font-feature-settings:normal;text-align:center;writing-mode:lr-tb;text-anchor:middle;fill:#f68183;fill-opacity:1;stroke-width:0.21335763"
           id="tspan4668-6-4-5-4-6">(--interactive)</tspan></text>
      <path
         style="fill:none;stroke:#000000;stroke-width:0.40319553;stroke-linecap:butt;stroke-linejoin:miter;stroke-miterlimit:4;stroke-dasharray:none;stroke-opacity:1;marker-end:url(#Arrow2Mend-28-9-2)"
         d="m 67.431813,38.463378 c -11.50893,0.969966 -24.06685,7.812481 -29.011027,21.479414"
         id="path4681-8-9-4"
         inkscape:connector-curvature="0"
         sodipodi:nodetypes="cc" />
      <text
         xml:space="preserve"
         style="font-style:normal;font-variant:normal;font-weight:bold;font-stretch:normal;font-size:2.27581477px;line-height:1.25;font-family:sans-serif;-inkscape-font-specification:'sans-serif, Bold';font-variant-ligatures:normal;font-variant-caps:normal;font-variant-numeric:normal;font-feature-settings:normal;text-align:center;letter-spacing:0px;word-spacing:0px;writing-mode:lr-tb;text-anchor:middle;fill:#000000;fill-opacity:1;stroke:none;stroke-width:0.21335763"
         x="56.742195"
         y="43.988838"
         id="text4666-2-1-04-6-4"
         transform="scale(0.93018679,1.0750529)"><tspan
           sodipodi:role="line"
           x="56.742195"
           y="43.988838"
           style="font-style:normal;font-variant:normal;font-weight:bold;font-stretch:normal;font-size:2.27581477px;font-family:sans-serif;-inkscape-font-specification:'sans-serif, Bold';font-variant-ligatures:normal;font-variant-caps:normal;font-variant-numeric:normal;font-feature-settings:normal;text-align:center;writing-mode:lr-tb;text-anchor:middle;stroke-width:0.21335763"
           id="tspan4668-6-4-0-2-3">pull -u</tspan></text>
      <text
         xml:space="preserve"
         style="font-style:normal;font-variant:normal;font-weight:bold;font-stretch:normal;font-size:2.27581477px;line-height:1.25;font-family:sans-serif;-inkscape-font-specification:'sans-serif, Bold';font-variant-ligatures:normal;font-variant-caps:normal;font-variant-numeric:normal;font-feature-settings:normal;text-align:center;letter-spacing:0px;word-spacing:0px;writing-mode:lr-tb;text-anchor:middle;fill:#cccccc;fill-opacity:1;stroke:none;stroke-width:0.21335763"
         x="58.852783"
         y="59.964787"
         id="text4666-2-1-0-1"
         transform="scale(0.93018679,1.0750529)"><tspan
           sodipodi:role="line"
           x="58.852783"
           y="59.964787"
           style="font-style:normal;font-variant:normal;font-weight:bold;font-stretch:normal;font-size:2.27581477px;font-family:sans-serif;-inkscape-font-specification:'sans-serif, Bold';font-variant-ligatures:normal;font-variant-caps:normal;font-variant-numeric:normal;font-feature-settings:normal;text-align:center;writing-mode:lr-tb;text-anchor:middle;fill:#cccccc;fill-opacity:1;stroke-width:0.21335763"
           id="tspan20131">diff, meld</tspan><tspan
           sodipodi:role="line"
           x="58.852783"
           y="62.809555"
           style="font-style:normal;font-variant:normal;font-weight:bold;font-stretch:normal;font-size:2.27581477px;font-family:sans-serif;-inkscape-font-specification:'sans-serif, Bold';font-variant-ligatures:normal;font-variant-caps:normal;font-variant-numeric:normal;font-feature-settings:normal;text-align:center;writing-mode:lr-tb;text-anchor:middle;fill:#cccccc;fill-opacity:1;stroke-width:0.21335763"
           id="tspan1305" /></text>
      <text
         xml:space="preserve"
         style="font-style:normal;font-variant:normal;font-weight:bold;font-stretch:normal;font-size:3.98267579px;line-height:1.25;font-family:sans-serif;-inkscape-font-specification:'sans-serif, Bold';font-variant-ligatures:normal;font-variant-caps:normal;font-variant-numeric:normal;font-feature-settings:normal;text-align:center;letter-spacing:0px;word-spacing:0px;writing-mode:lr-tb;text-anchor:middle;fill:#000000;fill-opacity:1;stroke:none;stroke-width:0.21335763"
         x="63.616135"
         y="27.058502"
         id="text4666-2-1-04-6-4-0"
         transform="scale(0.93018679,1.0750529)"><tspan
           sodipodi:role="line"
           x="63.616135"
           y="27.058502"
           style="font-style:normal;font-variant:normal;font-weight:bold;font-stretch:normal;font-size:3.98267579px;font-family:sans-serif;-inkscape-font-specification:'sans-serif, Bold';font-variant-ligatures:normal;font-variant-caps:normal;font-variant-numeric:normal;font-feature-settings:normal;text-align:center;writing-mode:lr-tb;text-anchor:middle;stroke-width:0.21335763"
           id="tspan4668-6-4-0-2-3-7">Basic Mercurial commands</tspan></text>
      <path
         style="fill:#cbcbcb;fill-opacity:0.75686275;stroke:#cccccc;stroke-width:0.40319553;stroke-linecap:butt;stroke-linejoin:miter;stroke-miterlimit:4;stroke-dasharray:none;stroke-dashoffset:0;stroke-opacity:1;marker-start:url(#Arrow2Sstart);marker-end:url(#Arrow2Send)"
         d="m 50.344855,65.719243 8.950119,0.02321"
         id="path1029"
         inkscape:connector-curvature="0"
         sodipodi:nodetypes="cc" />
      <text
         xml:space="preserve"
         style="font-style:normal;font-variant:normal;font-weight:bold;font-stretch:normal;font-size:2.27581477px;line-height:1;font-family:sans-serif;-inkscape-font-specification:'sans-serif, Bold';font-variant-ligatures:normal;font-variant-caps:normal;font-variant-numeric:normal;font-feature-settings:normal;text-align:center;letter-spacing:0px;word-spacing:0px;writing-mode:lr-tb;text-anchor:middle;fill:#0000ff;fill-opacity:1;stroke:none;stroke-width:0.40319553;stroke-miterlimit:4;stroke-dasharray:none"
         x="58.942181"
         y="65.365234"
         id="text4666-2-1-0-0"
         transform="scale(0.93018679,1.0750529)"><tspan
           sodipodi:role="line"
           x="58.942181"
           y="65.365234"
           style="font-style:normal;font-variant:normal;font-weight:bold;font-stretch:normal;font-size:2.27581477px;line-height:1;font-family:sans-serif;-inkscape-font-specification:'sans-serif, Bold';font-variant-ligatures:normal;font-variant-caps:normal;font-variant-numeric:normal;font-feature-settings:normal;text-align:center;writing-mode:lr-tb;text-anchor:middle;fill:#0000ff;stroke-width:0.40319553;stroke-miterlimit:4;stroke-dasharray:none"
           id="tspan4668-6-4-5-42">summary</tspan><tspan
           sodipodi:role="line"
           x="58.942181"
           y="67.641052"
           style="font-style:normal;font-variant:normal;font-weight:bold;font-stretch:normal;font-size:2.27581477px;line-height:1;font-family:sans-serif;-inkscape-font-specification:'sans-serif, Bold';font-variant-ligatures:normal;font-variant-caps:normal;font-variant-numeric:normal;font-feature-settings:normal;text-align:center;writing-mode:lr-tb;text-anchor:middle;fill:#0000ff;stroke-width:0.40319553;stroke-miterlimit:4;stroke-dasharray:none"
           id="tspan1345">status</tspan></text>
      <text
         xml:space="preserve"
         style="font-style:normal;font-variant:normal;font-weight:bold;font-stretch:normal;font-size:2.27581477px;line-height:1.25;font-family:sans-serif;-inkscape-font-specification:'sans-serif, Bold';font-variant-ligatures:normal;font-variant-caps:normal;font-variant-numeric:normal;font-feature-settings:normal;text-align:center;letter-spacing:0px;word-spacing:0px;writing-mode:lr-tb;text-anchor:middle;fill:#0000ff;fill-opacity:1;stroke:none;stroke-width:0.21335763"
         x="82.335732"
         y="71.315353"
         id="text4666-2-1-0-0-6"
         transform="scale(0.93018679,1.0750529)"><tspan
           sodipodi:role="line"
           x="82.335732"
           y="71.315353"
           style="font-style:normal;font-variant:normal;font-weight:bold;font-stretch:normal;font-size:2.27581477px;font-family:sans-serif;-inkscape-font-specification:'sans-serif, Bold';font-variant-ligatures:normal;font-variant-caps:normal;font-variant-numeric:normal;font-feature-settings:normal;text-align:center;writing-mode:lr-tb;text-anchor:middle;fill:#0000ff;stroke-width:0.21335763"
           id="tspan4668-6-4-5-42-1">log -G</tspan></text>
      <text
         xml:space="preserve"
         style="font-style:normal;font-variant:normal;font-weight:bold;font-stretch:normal;font-size:2.27581477px;line-height:1.25;font-family:sans-serif;-inkscape-font-specification:'sans-serif, Bold';font-variant-ligatures:normal;font-variant-caps:normal;font-variant-numeric:normal;font-feature-settings:normal;text-align:center;letter-spacing:0px;word-spacing:0px;writing-mode:lr-tb;text-anchor:middle;fill:#000000;fill-opacity:1;stroke:none;stroke-width:0.21335763"
         x="82.620514"
         y="40.250195"
         id="text4666-2-1-04-6-2"
         transform="scale(0.93018679,1.0750529)"><tspan
           sodipodi:role="line"
           x="82.620514"
           y="40.250195"
           style="font-style:normal;font-variant:normal;font-weight:bold;font-stretch:normal;font-size:2.27581477px;font-family:sans-serif;-inkscape-font-specification:'sans-serif, Bold';font-variant-ligatures:normal;font-variant-caps:normal;font-variant-numeric:normal;font-feature-settings:normal;text-align:center;writing-mode:lr-tb;text-anchor:middle;stroke-width:0.21335763"
           id="tspan4668-6-4-0-2-0">(web)</tspan></text>
      <text
         xml:space="preserve"
         style="font-style:normal;font-variant:normal;font-weight:bold;font-stretch:normal;font-size:2.27581477px;line-height:1.25;font-family:sans-serif;-inkscape-font-specification:'sans-serif, Bold';font-variant-ligatures:normal;font-variant-caps:normal;font-variant-numeric:normal;font-feature-settings:normal;text-align:center;letter-spacing:0px;word-spacing:0px;writing-mode:lr-tb;text-anchor:middle;fill:#000000;fill-opacity:1;stroke:none;stroke-width:0.21335763"
         x="78.20871"
         y="47.51376"
         id="text4666-2-1-04-6-5"
         transform="scale(0.93018679,1.0750529)"><tspan
           sodipodi:role="line"
           x="78.20871"
           y="47.51376"
           style="font-style:normal;font-variant:normal;font-weight:bold;font-stretch:normal;font-size:2.27581477px;font-family:sans-serif;-inkscape-font-specification:'sans-serif, Bold';font-variant-ligatures:normal;font-variant-caps:normal;font-variant-numeric:normal;font-feature-settings:normal;text-align:center;writing-mode:lr-tb;text-anchor:middle;stroke-width:0.21335763"
           id="tspan4668-6-4-0-2-5">pull</tspan></text>
      <text
         xml:space="preserve"
         style="font-style:normal;font-variant:normal;font-weight:bold;font-stretch:normal;font-size:2.27581477px;line-height:1.25;font-family:sans-serif;-inkscape-font-specification:'sans-serif, Bold';font-variant-ligatures:normal;font-variant-caps:normal;font-variant-numeric:normal;font-feature-settings:normal;text-align:center;letter-spacing:0px;word-spacing:0px;writing-mode:lr-tb;text-anchor:middle;fill:#8ffab6;fill-opacity:1;stroke:none;stroke-width:0.21335763"
         x="69.65947"
         y="71.390427"
         id="text4666-2-1-04-6-29"
         transform="scale(0.93018679,1.0750529)"><tspan
           sodipodi:role="line"
           x="69.65947"
           y="71.390427"
           style="font-style:normal;font-variant:normal;font-weight:bold;font-stretch:normal;font-size:2.27581477px;font-family:sans-serif;-inkscape-font-specification:'sans-serif, Bold';font-variant-ligatures:normal;font-variant-caps:normal;font-variant-numeric:normal;font-feature-settings:normal;text-align:center;writing-mode:lr-tb;text-anchor:middle;fill:#8ffab6;fill-opacity:1;stroke-width:0.21335763"
           id="tspan4668-6-4-0-2-02">init</tspan></text>
    </g>
  </g>
</svg>
